{
  "metadata" : {
    "realm" : "/external",
    "amsterVersion" : "6.0.0.4",
    "entityType" : "DataStoreModule",
    "entityId" : "DataStore",
    "pathParams" : { }
  },
  "data" : {
    "_id" : "DataStore",
    "authenticationLevel" : 0,
    "_type" : {
      "_id" : "datastore",
      "name" : "Data Store",
      "collection" : true
    }
  }
}