{
  "metadata" : {
    "realm" : null,
    "amsterVersion" : "6.0.0.4",
    "entityType" : "SupportedIds",
    "entityId" : "realm",
    "pathParams" : { }
  },
  "data" : {
    "_id" : "realm",
    "_type" : {
      "_id" : "SupportedIdentities",
      "name" : "SupportedIdentities",
      "collection" : true
    }
  }
}