{
  "metadata" : {
    "realm" : null,
    "amsterVersion" : "6.0.0.4",
    "entityType" : "DeviceIdSaveModule",
    "entityId" : "DeviceIdSaveModule",
    "pathParams" : { }
  },
  "data" : {
    "_id" : "",
    "defaults" : {
      "maxProfilesAllowed" : 5,
      "authenticationLevel" : 0,
      "autoStoreProfiles" : false
    },
    "_type" : {
      "_id" : "deviceidsave",
      "name" : "Device Id (Save)",
      "collection" : false
    }
  }
}