{
  "metadata" : {
    "realm" : null,
    "amsterVersion" : "6.0.0.4",
    "entityType" : "LegacyUserSelfService",
    "entityId" : "LegacyUserSelfService",
    "pathParams" : { }
  },
  "data" : {
    "_id" : "",
    "defaults" : {
      "forgotPasswordTokenLifetime" : 900,
      "selfServiceEnabled" : false,
      "selfRegistrationConfirmationUrl" : "http://am-1.internal.hcmlabs.com:8080/sso/XUI/confirm.html",
      "forgotPasswordEnabled" : false,
      "selfRegistrationEnabled" : false,
      "selfRegistrationTokenLifetime" : 900,
      "forgotPasswordConfirmationUrl" : "http://am-1.internal.hcmlabs.com:8080/sso/XUI/confirm.html",
      "userRegisteredDestination" : "default",
      "protectedUserAttributes" : [ ]
    },
    "_type" : {
      "_id" : "security",
      "name" : "Legacy User Self Service",
      "collection" : false
    }
  }
}