{
  "metadata" : {
    "realm" : null,
    "amsterVersion" : "6.0.0.4",
    "entityType" : "SessionPropertyWhiteList",
    "entityId" : "SessionPropertyWhiteList",
    "pathParams" : { }
  },
  "data" : {
    "_id" : "",
    "defaults" : {
      "sessionPropertyWhitelist" : [ "AMCtxId" ]
    },
    "_type" : {
      "_id" : "amSessionPropertyWhitelist",
      "name" : "Session Property Whitelist Service",
      "collection" : false
    }
  }
}