{
  "metadata" : {
    "realm" : null,
    "amsterVersion" : "6.5.0",
    "entityType" : "FileSystemSecretStore",
    "entityId" : "default-passwords-store",
    "pathParams" : { }
  },
  "data" : {
    "_id" : "default-passwords-store",
    "format" : "PLAIN",
    "directory" : "/home/forgerock/openam/secrets/encrypted",
    "_type" : {
      "_id" : "FileSystemSecretStore",
      "name" : "File System Secret Volumes",
      "collection" : true
    }
  }
}