{
  "metadata" : {
    "realm" : null,
    "amsterVersion" : "6.0.0.4",
    "entityType" : "Servers",
    "entityId" : "01",
    "pathParams" : { }
  },
  "data" : {
    "_id" : "01",
    "url" : "http://am-1.internal.hcmlabs.com:8080/sso",
    "siteName" : "Site1"
  }
}