{
  "metadata" : {
    "realm" : "/internal",
    "amsterVersion" : "6.0.0.4",
    "entityType" : "AuthTree",
    "entityId" : "SimpleAuthTree",
    "pathParams" : { }
  },
  "data" : {
    "_id" : "SimpleAuthTree",
    "entryNodeId" : "682cd302-7ad0-4624-8c39-b6e4f2b6dabd",
    "nodes" : {
      "682cd302-7ad0-4624-8c39-b6e4f2b6dabd" : {
        "nodeType" : "PageNode",
        "displayName" : "Page Node",
        "connections" : {
          "outcome" : "80d972af-1595-40ee-af80-d55584bda8bf"
        }
      },
      "80d972af-1595-40ee-af80-d55584bda8bf" : {
        "nodeType" : "DataStoreDecisionNode",
        "displayName" : "Data Store Decision",
        "connections" : {
          "true" : "70e691a5-1e33-4ac3-a356-e7b6d60d92e0",
          "false" : "e301438c-0bd0-429c-ab0c-66126501069a"
        }
      }
    }
  }
}