{
  "metadata" : {
    "realm" : "/external",
    "amsterVersion" : "6.5.0",
    "entityType" : "FederationModule",
    "entityId" : "Federation",
    "pathParams" : { }
  },
  "data" : {
    "_id" : "Federation",
    "authenticationLevel" : 0,
    "_type" : {
      "_id" : "federation",
      "name" : "Federation",
      "collection" : true
    }
  }
}